02-系統程式/03-組合語言/04-riscv/mcu_wave.vcd
$date
	Thu Dec  4 11:29:38 2025
$end
$version
	Icarus Verilog
$end
$timescale
	1ps
$end
$scope module tb_mcu $end
$var wire 32 ! result_a0 [31:0] $end
$var reg 1 " clk $end
$var reg 1 # rst_n $end
$scope module uut $end
$var wire 1 " clk $end
$var wire 1 $ pc_src $end
$var wire 1 # rst_n $end
$var wire 1 % zero_flag $end
$var wire 32 & src_b [31:0] $end
$var wire 32 ' result_a0 [31:0] $end
$var wire 1 ( reg_write $end
$var wire 32 ) reg_rdata2 [31:0] $end
$var wire 32 * reg_rdata1 [31:0] $end
$var wire 32 + pc_next [31:0] $end
$var wire 32 , pc [31:0] $end
$var wire 1 - lt_flag $end
$var wire 1 . jump $end
$var wire 32 / instruction [31:0] $end
$var wire 32 0 imm_ext [31:0] $end
$var wire 1 1 branch $end
$var wire 1 2 alu_src $end
$var wire 32 3 alu_out [31:0] $end
$var wire 3 4 alu_ctrl [2:0] $end
$var parameter 88 5 HEX_FILE $end
$var reg 32 6 pc_reg [31:0] $end
$scope module ctrl $end
$var wire 3 7 funct3 [2:0] $end
$var wire 7 8 funct7 [6:0] $end
$var wire 7 9 opcode [6:0] $end
$var reg 3 : alu_ctrl [2:0] $end
$var reg 1 2 alu_src $end
$var reg 1 1 branch $end
$var reg 1 . jump $end
$var reg 1 ( reg_write $end
$upscope $end
$scope module ig $end
$var wire 32 ; inst [31:0] $end
$var reg 32 < imm_ext [31:0] $end
$upscope $end
$scope module imem $end
$var wire 32 = addr [31:0] $end
$var wire 32 > inst [31:0] $end
$var parameter 88 ? FILENAME $end
$upscope $end
$scope module main_alu $end
$var wire 3 @ ctrl [2:0] $end
$var wire 32 A src_b [31:0] $end
$var wire 1 % zero $end
$var wire 32 B src_a [31:0] $end
$var reg 1 - lt $end
$var reg 32 C result [31:0] $end
$upscope $end
$scope module rf $end
$var wire 1 " clk $end
$var wire 32 D monitor_a0 [31:0] $end
$var wire 5 E raddr1 [4:0] $end
$var wire 5 F raddr2 [4:0] $end
$var wire 1 # rst_n $end
$var wire 5 G waddr [4:0] $end
$var wire 32 H wdata [31:0] $end
$var wire 1 ( we $end
$var wire 32 I rdata2 [31:0] $end
$var wire 32 J rdata1 [31:0] $end
$var integer 32 K i [31:0] $end
$upscope $end
$upscope $end
$upscope $end
$enddefinitions $end
$comment Show the parameter values. $end
$dumpall
b110000101110011011011010010111101110011011101010110110100101110011010000110010101111000 ?
b110000101110011011011010010111101110011011101010110110100101110011010000110010101111000 5
$end
#0
$dumpvars
b100000 K
b0 J
b0 I
b0 H
b101 G
b0 F
b0 E
b0 D
b0 C
b0 B
b0 A
b0 @
b1010010011 >
b0 =
b0 <
b1010010011 ;
b0 :
b10011 9
b0 8
b0 7
b0 6
b0 4
b0 3
12
01
b0 0
b1010010011 /
0.
0-
b0 ,
b100 +
b0 *
b0 )
1(
b0 '
b0 &
1%
0$
0#
0"
b0 !
$end
#5000
b100000 K
1"
#10000
0"
#15000
b100000 K
1"
#20000
0"
1#
#25000
1-
0%
b1 3
b1 C
b1 H
b1 &
b1 A
b110 G
b1 F
b1 0
b1 <
b1000 +
b100000000001100010011 /
b100000000001100010011 ;
b100000000001100010011 >
b100 ,
b100 6
b100 =
1"
#30000
0"
#35000
b1010 3
b1010 C
b1010 H
b1010 &
b1010 A
b111 G
b1010 F
b1010 0
b1010 <
b1100 +
b101000000000001110010011 /
b101000000000001110010011 ;
b101000000000001110010011 >
b1000 ,
b1000 6
b1000 =
1"
#40000
0"
#45000
0$
0-
1%
b0 3
b0 C
b0 H
b1 )
b1 I
b1010 *
b1010 B
b1010 J
b10 4
b10 :
b10 @
11
02
0(
b1 &
b1 A
b10000 G
b110 F
b111 E
b100 7
b1100011 9
b10000 0
b10000 <
b10000 +
b11000111100100001100011 /
b11000111100100001100011 ;
b11000111100100001100011 >
b1100 ,
b1100 6
b1100 =
1"
#50000
0"
#55000
1-
0%
b1 3
b1 C
b1 H
b0 *
b0 B
b0 J
1(
b0 4
b0 :
b0 @
01
b101 G
b101 E
b0 7
b110011 9
b0 0
b0 <
b10100 +
b11000101000001010110011 /
b11000101000001010110011 ;
b11000101000001010110011 >
b10000 ,
b10000 6
b10000 =
1"
#60000
0"
#65000
b0 )
b0 I
12
1(
b110 G
b1 F
b110 E
b10011 9
b1 0
b1 <
0-
b10 3
b10 C
b10 H
b11000 +
b100110000001100010011 /
b100110000001100010011 ;
b100110000001100010011 >
b1 *
b1 B
b1 J
b10100 ,
b10100 6
b10100 =
1"
#70000
0"
#75000
1%
1$
1.
02
0(
b0 &
b0 A
b0 3
b0 C
b0 H
b0 G
b10101 F
b11111 E
b1111111 8
b111 7
b1101111 9
b11111111111111111111111111110100 0
b11111111111111111111111111110100 <
b0 *
b0 B
b0 J
b1100 +
b11111111010111111111000001101111 /
b11111111010111111111000001101111 ;
b11111111010111111111000001101111 >
b11000 ,
b11000 6
b11000 =
1"
#80000
0"
#85000
b10 &
b10 A
0$
b10 )
b10 I
b1010 *
b1010 B
b1010 J
b10 4
b10 :
b10 @
11
0.
b10000 G
b110 F
b111 E
b0 8
b100 7
b1100011 9
b10000 0
b10000 <
b10000 +
b11000111100100001100011 /
b11000111100100001100011 ;
b11000111100100001100011 >
b1100 ,
b1100 6
b1100 =
1"
#90000
0"
#95000
1-
0%
b11 3
b11 C
b11 H
b1 *
b1 B
b1 J
1(
b0 4
b0 :
b0 @
01
b101 G
b101 E
b0 7
b110011 9
b0 0
b0 <
b10100 +
b11000101000001010110011 /
b11000101000001010110011 ;
b11000101000001010110011 >
b10000 ,
b10000 6
b10000 =
1"
#100000
0"
#105000
b1 &
b1 A
b0 )
b0 I
12
1(
b110 G
b1 F
b110 E
b10011 9
b1 0
b1 <
0-
b11 3
b11 C
b11 H
b11000 +
b100110000001100010011 /
b100110000001100010011 ;
b100110000001100010011 >
b10 *
b10 B
b10 J
b10100 ,
b10100 6
b10100 =
1"
#110000
0"
#115000
1%
1$
1.
02
0(
b0 &
b0 A
b0 3
b0 C
b0 H
b0 G
b10101 F
b11111 E
b1111111 8
b111 7
b1101111 9
b11111111111111111111111111110100 0
b11111111111111111111111111110100 <
b0 *
b0 B
b0 J
b1100 +
b11111111010111111111000001101111 /
b11111111010111111111000001101111 ;
b11111111010111111111000001101111 >
b11000 ,
b11000 6
b11000 =
1"
#120000
0"
#125000
b11 &
b11 A
0$
b11 )
b11 I
b1010 *
b1010 B
b1010 J
b10 4
b10 :
b10 @
11
0.
b10000 G
b110 F
b111 E
b0 8
b100 7
b1100011 9
b10000 0
b10000 <
b10000 +
b11000111100100001100011 /
b11000111100100001100011 ;
b11000111100100001100011 >
b1100 ,
b1100 6
b1100 =
1"
#130000
0"
#135000
0%
b110 3
b110 C
b110 H
b11 *
b11 B
b11 J
1(
b0 4
b0 :
b0 @
01
b101 G
b101 E
b0 7
b110011 9
b0 0
b0 <
b10100 +
b11000101000001010110011 /
b11000101000001010110011 ;
b11000101000001010110011 >
b10000 ,
b10000 6
b10000 =
1"
#140000
0"
#145000
b1 &
b1 A
b0 )
b0 I
12
1(
b110 G
b1 F
b110 E
b10011 9
b1 0
b1 <
b100 3
b100 C
b100 H
b11000 +
b100110000001100010011 /
b100110000001100010011 ;
b100110000001100010011 >
b11 *
b11 B
b11 J
b10100 ,
b10100 6
b10100 =
1"
#150000
0"
#155000
1%
1$
1.
02
0(
b0 &
b0 A
b0 3
b0 C
b0 H
b0 G
b10101 F
b11111 E
b1111111 8
b111 7
b1101111 9
b11111111111111111111111111110100 0
b11111111111111111111111111110100 <
b0 *
b0 B
b0 J
b1100 +
b11111111010111111111000001101111 /
b11111111010111111111000001101111 ;
b11111111010111111111000001101111 >
b11000 ,
b11000 6
b11000 =
1"
#160000
0"
#165000
b100 &
b100 A
0$
b100 )
b100 I
b1010 *
b1010 B
b1010 J
b10 4
b10 :
b10 @
11
0.
b10000 G
b110 F
b111 E
b0 8
b100 7
b1100011 9
b10000 0
b10000 <
b10000 +
b11000111100100001100011 /
b11000111100100001100011 ;
b11000111100100001100011 >
b1100 ,
b1100 6
b1100 =
1"
#170000
0"
#175000
0%
b1010 3
b1010 C
b1010 H
b110 *
b110 B
b110 J
1(
b0 4
b0 :
b0 @
01
b101 G
b101 E
b0 7
b110011 9
b0 0
b0 <
b10100 +
b11000101000001010110011 /
b11000101000001010110011 ;
b11000101000001010110011 >
b10000 ,
b10000 6
b10000 =
1"
#180000
0"
#185000
b1 &
b1 A
b0 )
b0 I
12
1(
b110 G
b1 F
b110 E
b10011 9
b1 0
b1 <
b101 3
b101 C
b101 H
b11000 +
b100110000001100010011 /
b100110000001100010011 ;
b100110000001100010011 >
b100 *
b100 B
b100 J
b10100 ,
b10100 6
b10100 =
1"
#190000
0"
#195000
1%
1$
1.
02
0(
b0 &
b0 A
b0 3
b0 C
b0 H
b0 G
b10101 F
b11111 E
b1111111 8
b111 7
b1101111 9
b11111111111111111111111111110100 0
b11111111111111111111111111110100 <
b0 *
b0 B
b0 J
b1100 +
b11111111010111111111000001101111 /
b11111111010111111111000001101111 ;
b11111111010111111111000001101111 >
b11000 ,
b11000 6
b11000 =
1"
#200000
0"
#205000
b101 &
b101 A
0$
b101 )
b101 I
b1010 *
b1010 B
b1010 J
b10 4
b10 :
b10 @
11
0.
b10000 G
b110 F
b111 E
b0 8
b100 7
b1100011 9
b10000 0
b10000 <
b10000 +
b11000111100100001100011 /
b11000111100100001100011 ;
b11000111100100001100011 >
b1100 ,
b1100 6
b1100 =
1"
#210000
0"
#215000
0%
b1111 3
b1111 C
b1111 H
1(
b0 4
b0 :
b0 @
01
b101 G
b101 E
b0 7
b110011 9
b0 0
b0 <
b10100 +
b11000101000001010110011 /
b11000101000001010110011 ;
b11000101000001010110011 >
b10000 ,
b10000 6
b10000 =
1"
#220000
0"
#225000
b1 &
b1 A
b0 )
b0 I
12
1(
b110 G
b1 F
b110 E
b10011 9
b1 0
b1 <
b110 3
b110 C
b110 H
b11000 +
b100110000001100010011 /
b100110000001100010011 ;
b100110000001100010011 >
b101 *
b101 B
b101 J
b10100 ,
b10100 6
b10100 =
1"
#230000
0"
#235000
1%
1$
1.
02
0(
b0 &
b0 A
b0 3
b0 C
b0 H
b0 G
b10101 F
b11111 E
b1111111 8
b111 7
b1101111 9
b11111111111111111111111111110100 0
b11111111111111111111111111110100 <
b0 *
b0 B
b0 J
b1100 +
b11111111010111111111000001101111 /
b11111111010111111111000001101111 ;
b11111111010111111111000001101111 >
b11000 ,
b11000 6
b11000 =
1"
#240000
0"
#245000
b110 &
b110 A
0$
b110 )
b110 I
b1010 *
b1010 B
b1010 J
b10 4
b10 :
b10 @
11
0.
b10000 G
b110 F
b111 E
b0 8
b100 7
b1100011 9
b10000 0
b10000 <
b10000 +
b11000111100100001100011 /
b11000111100100001100011 ;
b11000111100100001100011 >
b1100 ,
b1100 6
b1100 =
1"
#250000
0"
#255000
0%
b10101 3
b10101 C
b10101 H
b1111 *
b1111 B
b1111 J
1(
b0 4
b0 :
b0 @
01
b101 G
b101 E
b0 7
b110011 9
b0 0
b0 <
b10100 +
b11000101000001010110011 /
b11000101000001010110011 ;
b11000101000001010110011 >
b10000 ,
b10000 6
b10000 =
1"
#260000
0"
#265000
b1 &
b1 A
b0 )
b0 I
12
1(
b110 G
b1 F
b110 E
b10011 9
b1 0
b1 <
b111 3
b111 C
b111 H
b11000 +
b100110000001100010011 /
b100110000001100010011 ;
b100110000001100010011 >
b110 *
b110 B
b110 J
b10100 ,
b10100 6
b10100 =
1"
#270000
0"
#275000
1%
1$
1.
02
0(
b0 &
b0 A
b0 3
b0 C
b0 H
b0 G
b10101 F
b11111 E
b1111111 8
b111 7
b1101111 9
b11111111111111111111111111110100 0
b11111111111111111111111111110100 <
b0 *
b0 B
b0 J
b1100 +
b11111111010111111111000001101111 /
b11111111010111111111000001101111 ;
b11111111010111111111000001101111 >
b11000 ,
b11000 6
b11000 =
1"
#280000
0"
#285000
b111 &
b111 A
0$
b111 )
b111 I
b1010 *
b1010 B
b1010 J
b10 4
b10 :
b10 @
11
0.
b10000 G
b110 F
b111 E
b0 8
b100 7
b1100011 9
b10000 0
b10000 <
b10000 +
b11000111100100001100011 /
b11000111100100001100011 ;
b11000111100100001100011 >
b1100 ,
b1100 6
b1100 =
1"
#290000
0"
#295000
0%
b11100 3
b11100 C
b11100 H
b10101 *
b10101 B
b10101 J
1(
b0 4
b0 :
b0 @
01
b101 G
b101 E
b0 7
b110011 9
b0 0
b0 <
b10100 +
b11000101000001010110011 /
b11000101000001010110011 ;
b11000101000001010110011 >
b10000 ,
b10000 6
b10000 =
1"
#300000
0"
#305000
b1 &
b1 A
b0 )
b0 I
12
1(
b110 G
b1 F
b110 E
b10011 9
b1 0
b1 <
b1000 3
b1000 C
b1000 H
b11000 +
b100110000001100010011 /
b100110000001100010011 ;
b100110000001100010011 >
b111 *
b111 B
b111 J
b10100 ,
b10100 6
b10100 =
1"
#310000
0"
#315000
1%
1$
1.
02
0(
b0 &
b0 A
b0 3
b0 C
b0 H
b0 G
b10101 F
b11111 E
b1111111 8
b111 7
b1101111 9
b11111111111111111111111111110100 0
b11111111111111111111111111110100 <
b0 *
b0 B
b0 J
b1100 +
b11111111010111111111000001101111 /
b11111111010111111111000001101111 ;
b11111111010111111111000001101111 >
b11000 ,
b11000 6
b11000 =
1"
#320000
0"
#325000
b1000 &
b1000 A
0$
b1000 )
b1000 I
b1010 *
b1010 B
b1010 J
b10 4
b10 :
b10 @
11
0.
b10000 G
b110 F
b111 E
b0 8
b100 7
b1100011 9
b10000 0
b10000 <
b10000 +
b11000111100100001100011 /
b11000111100100001100011 ;
b11000111100100001100011 >
b1100 ,
b1100 6
b1100 =
1"
#330000
0"
#335000
0%
b100100 3
b100100 C
b100100 H
b11100 *
b11100 B
b11100 J
1(
b0 4
b0 :
b0 @
01
b101 G
b101 E
b0 7
b110011 9
b0 0
b0 <
b10100 +
b11000101000001010110011 /
b11000101000001010110011 ;
b11000101000001010110011 >
b10000 ,
b10000 6
b10000 =
1"
#340000
0"
#345000
b1 &
b1 A
b0 )
b0 I
12
1(
b110 G
b1 F
b110 E
b10011 9
b1 0
b1 <
b1001 3
b1001 C
b1001 H
b11000 +
b100110000001100010011 /
b100110000001100010011 ;
b100110000001100010011 >
b1000 *
b1000 B
b1000 J
b10100 ,
b10100 6
b10100 =
1"
#350000
0"
#355000
1%
1$
1.
02
0(
b0 &
b0 A
b0 3
b0 C
b0 H
b0 G
b10101 F
b11111 E
b1111111 8
b111 7
b1101111 9
b11111111111111111111111111110100 0
b11111111111111111111111111110100 <
b0 *
b0 B
b0 J
b1100 +
b11111111010111111111000001101111 /
b11111111010111111111000001101111 ;
b11111111010111111111000001101111 >
b11000 ,
b11000 6
b11000 =
1"
#360000
0"
#365000
b1001 &
b1001 A
0$
b1001 )
b1001 I
b1010 *
b1010 B
b1010 J
b10 4
b10 :
b10 @
11
0.
b10000 G
b110 F
b111 E
b0 8
b100 7
b1100011 9
b10000 0
b10000 <
b10000 +
b11000111100100001100011 /
b11000111100100001100011 ;
b11000111100100001100011 >
b1100 ,
b1100 6
b1100 =
1"
#370000
0"
#375000
0%
b101101 3
b101101 C
b101101 H
b100100 *
b100100 B
b100100 J
1(
b0 4
b0 :
b0 @
01
b101 G
b101 E
b0 7
b110011 9
b0 0
b0 <
b10100 +
b11000101000001010110011 /
b11000101000001010110011 ;
b11000101000001010110011 >
b10000 ,
b10000 6
b10000 =
1"
#380000
0"
#385000
b1 &
b1 A
b0 )
b0 I
12
1(
b110 G
b1 F
b110 E
b10011 9
b1 0
b1 <
b1010 3
b1010 C
b1010 H
b11000 +
b100110000001100010011 /
b100110000001100010011 ;
b100110000001100010011 >
b1001 *
b1001 B
b1001 J
b10100 ,
b10100 6
b10100 =
1"
#390000
0"
#395000
1%
1$
1.
02
0(
b0 &
b0 A
b0 3
b0 C
b0 H
b0 G
b10101 F
b11111 E
b1111111 8
b111 7
b1101111 9
b11111111111111111111111111110100 0
b11111111111111111111111111110100 <
b0 *
b0 B
b0 J
b1100 +
b11111111010111111111000001101111 /
b11111111010111111111000001101111 ;
b11111111010111111111000001101111 >
b11000 ,
b11000 6
b11000 =
1"
#400000
0"
#405000
b1010 &
b1010 A
0$
b1010 )
b1010 I
b1010 *
b1010 B
b1010 J
b10 4
b10 :
b10 @
11
0.
b10000 G
b110 F
b111 E
b0 8
b100 7
b1100011 9
b10000 0
b10000 <
b10000 +
b11000111100100001100011 /
b11000111100100001100011 ;
b11000111100100001100011 >
b1100 ,
b1100 6
b1100 =
1"
#410000
0"
#415000
0%
b110111 3
b110111 C
b110111 H
b101101 *
b101101 B
b101101 J
1(
b0 4
b0 :
b0 @
01
b101 G
b101 E
b0 7
b110011 9
b0 0
b0 <
b10100 +
b11000101000001010110011 /
b11000101000001010110011 ;
b11000101000001010110011 >
b10000 ,
b10000 6
b10000 =
1"
#420000
0"
#425000
b1 &
b1 A
b0 )
b0 I
12
1(
b110 G
b1 F
b110 E
b10011 9
b1 0
b1 <
b1011 3
b1011 C
b1011 H
b11000 +
b100110000001100010011 /
b100110000001100010011 ;
b100110000001100010011 >
b1010 *
b1010 B
b1010 J
b10100 ,
b10100 6
b10100 =
1"
#430000
0"
#435000
1%
1$
1.
02
0(
b0 &
b0 A
b0 3
b0 C
b0 H
b0 G
b10101 F
b11111 E
b1111111 8
b111 7
b1101111 9
b11111111111111111111111111110100 0
b11111111111111111111111111110100 <
b0 *
b0 B
b0 J
b1100 +
b11111111010111111111000001101111 /
b11111111010111111111000001101111 ;
b11111111010111111111000001101111 >
b11000 ,
b11000 6
b11000 =
1"
#440000
0"
#445000
1-
0%
b1 3
b1 C
b1 H
b1011 &
b1011 A
1$
b1011 )
b1011 I
b1010 *
b1010 B
b1010 J
b10 4
b10 :
b10 @
11
0.
b10000 G
b110 F
b111 E
b0 8
b100 7
b1100011 9
b10000 0
b10000 <
b11100 +
b11000111100100001100011 /
b11000111100100001100011 ;
b11000111100100001100011 >
b1100 ,
b1100 6
b1100 =
1"
#450000
0"
#455000
0$
0-
b0 &
b0 A
b110111 3
b110111 C
b110111 H
b0 )
b0 I
b110111 *
b110111 B
b110111 J
12
1(
b0 4
b0 :
b0 @
01
b1010 G
b0 F
b101 E
b0 7
b10011 9
b0 0
b0 <
b100000 +
b101000010100010011 /
b101000010100010011 ;
b101000010100010011 >
b11100 ,
b11100 6
b11100 =
1"
#460000
0"
#465000
1-
b1010 3
b1010 C
b1010 H
b110111 )
b110111 I
b0 *
b0 B
b0 J
b1010 &
b1010 A
b10001 G
b1010 F
b0 E
b1010 0
b1010 <
b100100 +
b101000000000100010010011 /
b101000000000100010010011 ;
b101000000000100010010011 >
b100000 ,
b100000 6
b100000 =
b110111 !
b110111 '
b110111 D
1"
#470000
0"
#475000
0-
1%
b0 3
b0 C
b0 H
b0 )
b0 I
02
0(
b0 &
b0 A
b0 G
b0 F
b1110011 9
b0 0
b0 <
b101000 +
b1110011 /
b1110011 ;
b1110011 >
b100100 ,
b100100 6
b100100 =
1"
#480000
0"
#485000
bx &
bx A
x-
x%
bx 3
bx C
bx H
bx )
bx I
bx *
bx B
bx J
bx G
bx F
bx E
bx 8
bx 7
bx 9
b101100 +
bx /
bx ;
bx >
b101000 ,
b101000 6
b101000 =
1"
#490000
0"
#495000
b110000 +
b101100 ,
b101100 6
b101100 =
1"
#500000
0"
#505000
b110100 +
b110000 ,
b110000 6
b110000 =
1"
#510000
0"
#515000
b111000 +
b110100 ,
b110100 6
b110100 =
1"
#520000
0"
#525000
b111100 +
b111000 ,
b111000 6
b111000 =
1"
#530000
0"
#535000
b1000000 +
b111100 ,
b111100 6
b111100 =
1"
#540000
0"
#545000
b1000100 +
b1000000 ,
b1000000 6
b1000000 =
1"
#550000
0"
#555000
b1001000 +
b1000100 ,
b1000100 6
b1000100 =
1"
#560000
0"
#565000
b1001100 +
b1001000 ,
b1001000 6
b1001000 =
1"
#570000
0"
#575000
b1010000 +
b1001100 ,
b1001100 6
b1001100 =
1"
#580000
0"
#585000
b1010100 +
b1010000 ,
b1010000 6
b1010000 =
1"
#590000
0"
#595000
b1011000 +
b1010100 ,
b1010100 6
b1010100 =
1"
#600000
0"
#605000
b1011100 +
b1011000 ,
b1011000 6
b1011000 =
1"
#610000
0"
#615000
b1100000 +
b1011100 ,
b1011100 6
b1011100 =
1"
