02-系統程式/03-組合語言/04-riscv/pipeline_wave.vcd
$date
	Thu Dec  4 12:09:44 2025
$end
$version
	Icarus Verilog
$end
$timescale
	1ps
$end
$scope module tb_pipeline $end
$var wire 32 ! result_a0 [31:0] $end
$var reg 1 " clk $end
$var reg 1 # rst_n $end
$scope module uut $end
$var wire 32 $ alu_in_a [31:0] $end
$var wire 1 " clk $end
$var wire 1 % pc_src $end
$var wire 32 & pc_target [31:0] $end
$var wire 1 # rst_n $end
$var wire 5 ' wb_rd [4:0] $end
$var wire 1 ( wb_reg_write $end
$var wire 32 ) wb_wdata [31:0] $end
$var wire 32 * result_a0 [31:0] $end
$var wire 32 + pc_plus4 [31:0] $end
$var wire 32 , pc_next [31:0] $end
$var wire 32 - inst_raw [31:0] $end
$var wire 5 . id_rs2 [4:0] $end
$var wire 5 / id_rs1 [4:0] $end
$var wire 1 0 id_reg_write $end
$var wire 32 1 id_rdata2 [31:0] $end
$var wire 32 2 id_rdata1 [31:0] $end
$var wire 5 3 id_rd [4:0] $end
$var wire 1 4 id_jump $end
$var wire 32 5 id_imm [31:0] $end
$var wire 1 6 id_branch $end
$var wire 1 7 id_alu_src $end
$var wire 3 8 id_alu_ctrl [2:0] $end
$var wire 32 9 fwd_data_b [31:0] $end
$var wire 32 : fwd_data_a [31:0] $end
$var wire 2 ; forward_b [1:0] $end
$var wire 2 < forward_a [1:0] $end
$var wire 1 = ex_zero $end
$var wire 32 > ex_pc_target [31:0] $end
$var wire 1 ? ex_lt $end
$var wire 32 @ ex_alu_result [31:0] $end
$var wire 32 A alu_in_b_final [31:0] $end
$var parameter 88 B HEX_FILE $end
$var reg 32 C ex_mem_alu_result [31:0] $end
$var reg 1 D ex_mem_branch $end
$var reg 1 E ex_mem_jump $end
$var reg 1 F ex_mem_lt $end
$var reg 32 G ex_mem_pc_target [31:0] $end
$var reg 5 H ex_mem_rd [4:0] $end
$var reg 1 I ex_mem_reg_write $end
$var reg 1 J ex_mem_zero $end
$var reg 3 K id_ex_alu_ctrl [2:0] $end
$var reg 1 L id_ex_alu_src $end
$var reg 1 M id_ex_branch $end
$var reg 32 N id_ex_imm [31:0] $end
$var reg 1 O id_ex_jump $end
$var reg 32 P id_ex_pc [31:0] $end
$var reg 5 Q id_ex_rd [4:0] $end
$var reg 32 R id_ex_rdata1 [31:0] $end
$var reg 32 S id_ex_rdata2 [31:0] $end
$var reg 1 T id_ex_reg_write $end
$var reg 5 U id_ex_rs1 [4:0] $end
$var reg 5 V id_ex_rs2 [4:0] $end
$var reg 32 W if_id_inst [31:0] $end
$var reg 32 X if_id_pc [31:0] $end
$var reg 32 Y mem_wb_alu_result [31:0] $end
$var reg 5 Z mem_wb_rd [4:0] $end
$var reg 1 [ mem_wb_reg_write $end
$var reg 32 \ pc [31:0] $end
$scope module ctrl $end
$var wire 3 ] funct3 [2:0] $end
$var wire 7 ^ opcode [6:0] $end
$var reg 3 _ alu_ctrl [2:0] $end
$var reg 1 7 alu_src $end
$var reg 1 6 branch $end
$var reg 1 4 jump $end
$var reg 1 0 reg_write $end
$upscope $end
$scope module fwd_unit $end
$var wire 5 ` ex_mem_rd [4:0] $end
$var wire 1 I ex_mem_reg_write $end
$var wire 5 a mem_wb_rd [4:0] $end
$var wire 1 [ mem_wb_reg_write $end
$var wire 5 b rs1 [4:0] $end
$var wire 5 c rs2 [4:0] $end
$var reg 2 d forward_a [1:0] $end
$var reg 2 e forward_b [1:0] $end
$upscope $end
$scope module ig $end
$var wire 32 f inst [31:0] $end
$var reg 32 g imm_ext [31:0] $end
$upscope $end
$scope module imem $end
$var wire 32 h addr [31:0] $end
$var wire 32 i inst [31:0] $end
$var parameter 88 j FILENAME $end
$var integer 32 k i [31:0] $end
$upscope $end
$scope module main_alu $end
$var wire 3 l ctrl [2:0] $end
$var wire 32 m src_a [31:0] $end
$var wire 32 n src_b [31:0] $end
$var wire 1 = zero $end
$var reg 1 ? lt $end
$var reg 32 o result [31:0] $end
$upscope $end
$scope module rf $end
$var wire 1 " clk $end
$var wire 32 p monitor_a0 [31:0] $end
$var wire 5 q raddr1 [4:0] $end
$var wire 5 r raddr2 [4:0] $end
$var wire 1 # rst_n $end
$var wire 5 s waddr [4:0] $end
$var wire 32 t wdata [31:0] $end
$var wire 1 ( we $end
$var wire 32 u rdata2 [31:0] $end
$var wire 32 v rdata1 [31:0] $end
$var integer 32 w i [31:0] $end
$upscope $end
$upscope $end
$upscope $end
$enddefinitions $end
$comment Show the parameter values. $end
$dumpall
b110000101110011011011010010111101110011011101010110110100101110011010000110010101111000 j
b110000101110011011011010010111101110011011101010110110100101110011010000110010101111000 B
$end
#0
$dumpvars
b100000 w
b0 v
b0 u
b0 t
b0 s
b0 r
b0 q
b0 p
b0 o
b0 n
b0 m
bx l
b1000000 k
b1010010011 i
b0 h
b0 g
b0 f
b0 e
b0 d
b0 c
b0 b
b0 a
b0 `
b0 _
b0 ^
b0 ]
b0 \
0[
b0 Z
b0 Y
b0 X
b0 W
b0 V
b0 U
0T
b0 S
b0 R
b0 Q
b0 P
0O
b0 N
0M
xL
bx K
0J
0I
b0 H
b0 G
0F
0E
0D
b0 C
b0 A
b0 @
0?
b0 >
1=
b0 <
b0 ;
b0 :
b0 9
b0 8
07
06
b0 5
04
b0 3
b0 2
b0 1
00
b0 /
b0 .
b1010010011 -
b100 ,
b100 +
b0 *
b0 )
0(
b0 '
b0 &
0%
b0 $
0#
0"
b0 !
$end
#5000
b100000 w
1"
#10000
0"
#15000
b100000 w
1"
#20000
0"
1#
#25000
17
10
b101 3
b10011 ^
b1000 ,
b100000000001100010011 -
b100000000001100010011 i
1J
b0 K
b0 l
0L
b1010010011 W
b1010010011 f
b1000 +
b100 \
b100 h
1"
#30000
0"
#35000
b1100 ,
b101000000000001110010011 -
b101000000000001110010011 i
b1 .
b1 r
b110 3
b1 5
b1 g
b1100 +
b1000 \
b1000 h
b100000000001100010011 W
b100000000001100010011 f
b100 X
1L
1T
b101 Q
1"
#40000
0"
#45000
1?
0=
b1 @
b1 o
b1 A
b1 n
b1010 .
b1010 r
b111 3
b1010 5
b1010 g
b10000 ,
b11000111100100001100011 -
b11000111100100001100011 i
b101 H
b101 `
1I
b110 Q
b1 V
b1 c
b1 N
b101 >
b100 P
b101000000000001110010011 W
b101000000000001110010011 f
b1000 X
b10000 +
b1100 \
b1100 h
1"
#50000
0"
#55000
b10 8
b10 _
16
07
00
b1010 @
b1010 o
b10100 ,
b11000101000001010110011 -
b11000101000001010110011 i
b111 /
b111 q
b110 .
b110 r
b10000 3
b1100011 ^
b100 ]
b10000 5
b10000 g
b1010 A
b1010 n
b10100 +
b10000 \
b10000 h
b11000111100100001100011 W
b11000111100100001100011 f
b1100 X
b111 Q
b1010 V
b1010 c
b1010 N
b10010 >
b1000 P
1F
0J
b110 H
b110 `
b101 &
b101 G
b1 C
1(
1[
b101 '
b101 s
b101 Z
b101 a
1"
#60000
0"
#65000
b1 1
b1 u
b1 9
b1010 $
b1010 m
b1010 :
0?
10
b0 8
b0 _
06
1=
b0 @
b0 o
b1 ;
b1 e
b10 <
b10 d
b1 A
b1 n
b101 /
b101 q
b101 3
b110011 ^
b0 ]
b0 5
b0 g
b11000 ,
b100110000001100010011 -
b100110000001100010011 i
b110 '
b110 s
b110 Z
b110 a
b1 )
b1 Y
b1 t
b111 H
b111 `
b10010 &
b10010 G
b1010 C
b10 K
b10 l
1M
0L
0T
b10000 Q
b110 V
b110 c
b111 U
b111 b
b10000 N
b11100 >
b1100 P
b11000101000001010110011 W
b11000101000001010110011 f
b10000 X
b11000 +
b10100 \
b10100 h
1"
#70000
0"
#75000
b1 2
b1 v
b1 A
b1 n
17
10
1?
b1 9
b0 1
b0 u
b11100 ,
b11111111010111111111000001101111 -
b11111111010111111111000001101111 i
b110 /
b110 q
b1 .
b1 r
b110 3
b10011 ^
b1 5
b1 g
0=
b1 @
b1 o
b0 $
b0 m
b0 :
b0 ;
b0 e
b0 <
b0 d
b11100 +
b11000 \
b11000 h
b100110000001100010011 W
b100110000001100010011 f
b10100 X
b0 K
b0 l
0M
1T
b101 Q
b101 U
b101 b
b0 N
b1 S
b10000 >
b10000 P
0F
1J
b10000 H
b10000 `
b11100 &
b11100 G
b0 C
1D
0I
b111 '
b111 s
b111 Z
b111 a
b1010 )
b1010 Y
b1010 t
1"
#80000
0"
#85000
0?
b10 @
b10 o
b0 2
b0 v
b0 9
b1 $
b1 m
b1 :
14
07
00
b11111 /
b11111 q
b10101 .
b10101 r
b0 3
b1101111 ^
b111 ]
b11111111111111111111111111110100 5
b11111111111111111111111111110100 g
b100000 ,
b101000010100010011 -
b101000010100010011 i
0(
0[
b10000 '
b10000 s
b10000 Z
b10000 a
b0 )
b0 Y
b0 t
1F
0J
b101 H
b101 `
b10000 &
b10000 G
b1 C
0D
1I
1L
b110 Q
b1 V
b1 c
b110 U
b110 b
b1 N
b0 S
b1 R
b10101 >
b10100 P
b11111111010111111111000001101111 W
b11111111010111111111000001101111 f
b11000 X
b100000 +
b11100 \
b11100 h
1"
#90000
0"
#95000
b1 2
b1 v
17
10
04
1=
b0 @
b0 o
b0 $
b0 m
b0 :
b100100 ,
b101000000000100010010011 -
b101000000000100010010011 i
b101 /
b101 q
b0 .
b0 r
b1010 3
b10011 ^
b0 ]
b0 5
b0 g
b0 A
b0 n
b100100 +
b100000 \
b100000 h
b101000010100010011 W
b101000010100010011 f
b11100 X
1O
0L
0T
b0 Q
b10101 V
b10101 c
b11111 U
b11111 b
b11111111111111111111111111110100 N
b0 R
b1100 >
b11000 P
0F
b110 H
b110 `
b10101 &
b10101 G
b10 C
1(
1[
b101 '
b101 s
b101 Z
b101 a
b1 )
b1 Y
b1 t
1"
#100000
0"
#105000
0=
b1 @
b1 o
b1 $
b1 m
b1 :
b0 2
b0 v
1%
b0 /
b0 q
b1010 .
b1010 r
b10001 3
b1010 5
b1010 g
b1100 ,
b1110011 -
b1110011 i
b110 '
b110 s
b110 Z
b110 a
b10 )
b10 Y
b10 t
1J
b0 H
b0 `
b1100 &
b1100 G
b0 C
1E
0I
0O
1L
1T
b1010 Q
b0 V
b0 c
b101 U
b101 b
b0 N
b1 R
b11100 >
b11100 P
b101000000000100010010011 W
b101000000000100010010011 f
b100000 X
b101000 +
b100100 \
b100100 h
1"
#110000
0"
#115000
07
00
b11000111100100001100011 -
b11000111100100001100011 i
b0 .
b0 r
b0 3
b0 ^
b0 5
b0 g
b10000 ,
0%
b10000 +
b1100 \
b1100 h
b0 W
b0 f
b0 X
b0 Q
0T
b0 &
b0 G
0E
0(
0[
b0 '
b0 s
b0 Z
b0 a
b0 )
b0 Y
b0 t
1"
#120000
0"
#125000
1=
b0 @
b0 o
b0 $
b0 m
b0 :
b1010 2
b1010 v
b10 1
b10 u
b10 8
b10 _
16
b111 /
b111 q
b110 .
b110 r
b10000 3
b1100011 ^
b100 ]
b10000 5
b10000 g
b10100 ,
b11000101000001010110011 -
b11000101000001010110011 i
0J
b11100 &
b11100 G
b1 C
0L
b0 U
b0 b
b0 R
b0 >
b0 P
b11000111100100001100011 W
b11000111100100001100011 f
b1100 X
b10100 +
b10000 \
b10000 h
1"
#130000
0"
#135000
b1 2
b1 v
b10 A
b10 n
10
b0 8
b0 _
06
b10 9
b1010 $
b1010 m
b1010 :
b11000 ,
b100110000001100010011 -
b100110000001100010011 i
b101 /
b101 q
b101 3
b110011 ^
b0 ]
b0 5
b0 g
b11000 +
b10100 \
b10100 h
b11000101000001010110011 W
b11000101000001010110011 f
b10000 X
b10 K
b10 l
1M
b10000 Q
b110 V
b110 c
b111 U
b111 b
b10000 N
b10 S
b1010 R
b11100 >
b1100 P
1J
b0 &
b0 G
b0 C
b1 )
b1 Y
b1 t
1"
#140000
0"
#145000
1?
b10 2
b10 v
b0 1
b0 u
b1 $
b1 m
b1 :
17
10
0=
b11 @
b11 o
b110 /
b110 q
b1 .
b1 r
b110 3
b10011 ^
b1 5
b1 g
b11100 ,
b11111111010111111111000001101111 -
b11111111010111111111000001101111 i
b0 )
b0 Y
b0 t
b10000 H
b10000 `
b11100 &
b11100 G
1D
b0 K
b0 l
0M
1T
b101 Q
b101 U
b101 b
b0 N
b1 R
b10000 >
b10000 P
b100110000001100010011 W
b100110000001100010011 f
b10100 X
b11100 +
b11000 \
b11000 h
1"
#150000
0"
#155000
b0 2
b0 v
14
07
00
0?
b0 9
b10 $
b10 m
b10 :
b100000 ,
b101000010100010011 -
b101000010100010011 i
b11111 /
b11111 q
b10101 .
b10101 r
b0 3
b1101111 ^
b111 ]
b11111111111111111111111111110100 5
b11111111111111111111111111110100 g
b1 A
b1 n
b100000 +
b11100 \
b11100 h
b11111111010111111111000001101111 W
b11111111010111111111000001101111 f
b11000 X
1L
b110 Q
b1 V
b1 c
b110 U
b110 b
b1 N
b0 S
b10 R
b10101 >
b10100 P
1F
0J
b101 H
b101 `
b10000 &
b10000 G
b11 C
0D
1I
b10000 '
b10000 s
b10000 Z
b10000 a
1"
#160000
0"
#165000
b11 2
b11 v
1=
b0 @
b0 o
b0 $
b0 m
b0 :
17
10
04
b0 A
b0 n
b101 /
b101 q
b0 .
b0 r
b1010 3
b10011 ^
b0 ]
b0 5
b0 g
b100100 ,
b101000000000100010010011 -
b101000000000100010010011 i
1(
1[
b101 '
b101 s
b101 Z
b101 a
b11 )
b11 Y
b11 t
0F
b110 H
b110 `
b10101 &
b10101 G
1O
0L
0T
b0 Q
b10101 V
b10101 c
b11111 U
b11111 b
b11111111111111111111111111110100 N
b0 R
b1100 >
b11000 P
b101000010100010011 W
b101000010100010011 f
b11100 X
b100100 +
b100000 \
b100000 h
1"
#170000
0"
#175000
0=
b11 @
b11 o
b0 2
b0 v
b11 $
b11 m
b11 :
b1100 ,
b1110011 -
b1110011 i
b0 /
b0 q
b1010 .
b1010 r
b10001 3
b1010 5
b1010 g
1%
b101000 +
b100100 \
b100100 h
b101000000000100010010011 W
b101000000000100010010011 f
b100000 X
0O
1L
1T
b1010 Q
b0 V
b0 c
b101 U
b101 b
b0 N
b11 R
b11100 >
b11100 P
1J
b0 H
b0 `
b1100 &
b1100 G
b0 C
1E
0I
b110 '
b110 s
b110 Z
b110 a
1"
#180000
0"
#185000
07
00
b10000 ,
0%
b0 .
b0 r
b0 3
b0 ^
b0 5
b0 g
b11000111100100001100011 -
b11000111100100001100011 i
0(
0[
b0 '
b0 s
b0 Z
b0 a
b0 )
b0 Y
b0 t
b0 &
b0 G
0E
b0 Q
0T
b0 W
b0 f
b0 X
b10000 +
b1100 \
b1100 h
1"
#190000
0"
#195000
1=
b0 @
b0 o
b1010 2
b1010 v
b11 1
b11 u
b10 8
b10 _
16
b0 $
b0 m
b0 :
b10100 ,
b11000101000001010110011 -
b11000101000001010110011 i
b111 /
b111 q
b110 .
b110 r
b10000 3
b1100011 ^
b100 ]
b10000 5
b10000 g
b10100 +
b10000 \
b10000 h
b11000111100100001100011 W
b11000111100100001100011 f
b1100 X
0L
b0 U
b0 b
b0 R
b0 >
b0 P
0J
b11100 &
b11100 G
b11 C
1"
#200000
0"
#205000
b11 A
b11 n
b11 2
b11 v
b11 9
b1010 $
b1010 m
b1010 :
10
b0 8
b0 _
06
b101 /
b101 q
b101 3
b110011 ^
b0 ]
b0 5
b0 g
b11000 ,
b100110000001100010011 -
b100110000001100010011 i
b11 )
b11 Y
b11 t
1J
b0 &
b0 G
b0 C
b10 K
b10 l
1M
b10000 Q
b110 V
b110 c
b111 U
b111 b
b10000 N
b11 S
b1010 R
b11100 >
b1100 P
b11000101000001010110011 W
b11000101000001010110011 f
b10000 X
b11000 +
b10100 \
b10100 h
1"
#210000
0"
#215000
b0 1
b0 u
17
10
b11 $
b11 m
b11 :
b11100 ,
b11111111010111111111000001101111 -
b11111111010111111111000001101111 i
b110 /
b110 q
b1 .
b1 r
b110 3
b10011 ^
b1 5
b1 g
0=
b110 @
b110 o
b11100 +
b11000 \
b11000 h
b100110000001100010011 W
b100110000001100010011 f
b10100 X
b0 K
b0 l
0M
1T
b101 Q
b101 U
b101 b
b0 N
b11 R
b10000 >
b10000 P
b10000 H
b10000 `
b11100 &
b11100 G
1D
b0 )
b0 Y
b0 t
1"
#220000
0"
#225000
b0 2
b0 v
b100 @
b100 o
b0 9
14
07
00
b1 A
b1 n
b11111 /
b11111 q
b10101 .
b10101 r
b0 3
b1101111 ^
b111 ]
b11111111111111111111111111110100 5
b11111111111111111111111111110100 g
b100000 ,
b101000010100010011 -
b101000010100010011 i
b10000 '
b10000 s
b10000 Z
b10000 a
0J
b101 H
b101 `
b10000 &
b10000 G
b110 C
0D
1I
1L
b110 Q
b1 V
b1 c
b110 U
b110 b
b1 N
b0 S
b10101 >
b10100 P
b11111111010111111111000001101111 W
b11111111010111111111000001101111 f
b11000 X
b100000 +
b11100 \
b11100 h
1"
#230000
0"
#235000
b110 2
b110 v
17
10
04
1=
b0 @
b0 o
b0 $
b0 m
b0 :
b100100 ,
b101000000000100010010011 -
b101000000000100010010011 i
b101 /
b101 q
b0 .
b0 r
b1010 3
b10011 ^
b0 ]
b0 5
b0 g
b0 A
b0 n
b100100 +
b100000 \
b100000 h
b101000010100010011 W
b101000010100010011 f
b11100 X
1O
0L
0T
b0 Q
b10101 V
b10101 c
b11111 U
b11111 b
b11111111111111111111111111110100 N
b0 R
b1100 >
b11000 P
b110 H
b110 `
b10101 &
b10101 G
b100 C
1(
1[
b101 '
b101 s
b101 Z
b101 a
b110 )
b110 Y
b110 t
1"
#240000
0"
#245000
0=
b110 @
b110 o
b110 $
b110 m
b110 :
b0 2
b0 v
1%
b0 /
b0 q
b1010 .
b1010 r
b10001 3
b1010 5
b1010 g
b1100 ,
b1110011 -
b1110011 i
b110 '
b110 s
b110 Z
b110 a
b100 )
b100 Y
b100 t
1J
b0 H
b0 `
b1100 &
b1100 G
b0 C
1E
0I
0O
1L
1T
b1010 Q
b0 V
b0 c
b101 U
b101 b
b0 N
b110 R
b11100 >
b11100 P
b101000000000100010010011 W
b101000000000100010010011 f
b100000 X
b101000 +
b100100 \
b100100 h
1"
#250000
0"
#255000
07
00
b11000111100100001100011 -
b11000111100100001100011 i
b0 .
b0 r
b0 3
b0 ^
b0 5
b0 g
b10000 ,
0%
b10000 +
b1100 \
b1100 h
b0 W
b0 f
b0 X
b0 Q
0T
b0 &
b0 G
0E
0(
0[
b0 '
b0 s
b0 Z
b0 a
b0 )
b0 Y
b0 t
1"
#260000
0"
#265000
1=
b0 @
b0 o
b0 $
b0 m
b0 :
b1010 2
b1010 v
b100 1
b100 u
b10 8
b10 _
16
b111 /
b111 q
b110 .
b110 r
b10000 3
b1100011 ^
b100 ]
b10000 5
b10000 g
b10100 ,
b11000101000001010110011 -
b11000101000001010110011 i
0J
b11100 &
b11100 G
b110 C
0L
b0 U
b0 b
b0 R
b0 >
b0 P
b11000111100100001100011 W
b11000111100100001100011 f
b1100 X
b10100 +
b10000 \
b10000 h
1"
#270000
0"
#275000
b110 2
b110 v
b100 A
b100 n
10
b0 8
b0 _
06
b100 9
b1010 $
b1010 m
b1010 :
b11000 ,
b100110000001100010011 -
b100110000001100010011 i
b101 /
b101 q
b101 3
b110011 ^
b0 ]
b0 5
b0 g
b11000 +
b10100 \
b10100 h
b11000101000001010110011 W
b11000101000001010110011 f
b10000 X
b10 K
b10 l
1M
b10000 Q
b110 V
b110 c
b111 U
b111 b
b10000 N
b100 S
b1010 R
b11100 >
b1100 P
1J
b0 &
b0 G
b0 C
b110 )
b110 Y
b110 t
1"
#280000
0"
#285000
b100 2
b100 v
b0 1
b0 u
b110 $
b110 m
b110 :
17
10
0=
b1010 @
b1010 o
b110 /
b110 q
b1 .
b1 r
b110 3
b10011 ^
b1 5
b1 g
b11100 ,
b11111111010111111111000001101111 -
b11111111010111111111000001101111 i
b0 )
b0 Y
b0 t
b10000 H
b10000 `
b11100 &
b11100 G
1D
b0 K
b0 l
0M
1T
b101 Q
b101 U
b101 b
b0 N
b110 R
b10000 >
b10000 P
b100110000001100010011 W
b100110000001100010011 f
b10100 X
b11100 +
b11000 \
b11000 h
1"
#290000
0"
#295000
b0 2
b0 v
14
07
00
b101 @
b101 o
b0 9
b100 $
b100 m
b100 :
b100000 ,
b101000010100010011 -
b101000010100010011 i
b11111 /
b11111 q
b10101 .
b10101 r
b0 3
b1101111 ^
b111 ]
b11111111111111111111111111110100 5
b11111111111111111111111111110100 g
b1 A
b1 n
b100000 +
b11100 \
b11100 h
b11111111010111111111000001101111 W
b11111111010111111111000001101111 f
b11000 X
1L
b110 Q
b1 V
b1 c
b110 U
b110 b
b1 N
b0 S
b100 R
b10101 >
b10100 P
0J
b101 H
b101 `
b10000 &
b10000 G
b1010 C
0D
1I
b10000 '
b10000 s
b10000 Z
b10000 a
1"
#300000
0"
#305000
b1010 2
b1010 v
1=
b0 @
b0 o
b0 $
b0 m
b0 :
17
10
04
b0 A
b0 n
b101 /
b101 q
b0 .
b0 r
b1010 3
b10011 ^
b0 ]
b0 5
b0 g
b100100 ,
b101000000000100010010011 -
b101000000000100010010011 i
1(
1[
b101 '
b101 s
b101 Z
b101 a
b1010 )
b1010 Y
b1010 t
b110 H
b110 `
b10101 &
b10101 G
b101 C
1O
0L
0T
b0 Q
b10101 V
b10101 c
b11111 U
b11111 b
b11111111111111111111111111110100 N
b0 R
b1100 >
b11000 P
b101000010100010011 W
b101000010100010011 f
b11100 X
b100100 +
b100000 \
b100000 h
1"
#310000
0"
#315000
0=
b1010 @
b1010 o
b1010 $
b1010 m
b1010 :
b0 2
b0 v
b1100 ,
b1110011 -
b1110011 i
b0 /
b0 q
b1010 .
b1010 r
b10001 3
b1010 5
b1010 g
1%
b101000 +
b100100 \
b100100 h
b101000000000100010010011 W
b101000000000100010010011 f
b100000 X
0O
1L
1T
b1010 Q
b0 V
b0 c
b101 U
b101 b
b0 N
b1010 R
b11100 >
b11100 P
1J
b0 H
b0 `
b1100 &
b1100 G
b0 C
1E
0I
b110 '
b110 s
b110 Z
b110 a
b101 )
b101 Y
b101 t
1"
#320000
0"
#325000
07
00
b10000 ,
0%
b0 .
b0 r
b0 3
b0 ^
b0 5
b0 g
b11000111100100001100011 -
b11000111100100001100011 i
0(
0[
b0 '
b0 s
b0 Z
b0 a
b0 )
b0 Y
b0 t
b0 &
b0 G
0E
b0 Q
0T
b0 W
b0 f
b0 X
b10000 +
b1100 \
b1100 h
1"
#330000
0"
#335000
1=
b0 @
b0 o
b1010 2
b1010 v
b101 1
b101 u
b10 8
b10 _
16
b0 $
b0 m
b0 :
b10100 ,
b11000101000001010110011 -
b11000101000001010110011 i
b111 /
b111 q
b110 .
b110 r
b10000 3
b1100011 ^
b100 ]
b10000 5
b10000 g
b10100 +
b10000 \
b10000 h
b11000111100100001100011 W
b11000111100100001100011 f
b1100 X
0L
b0 U
b0 b
b0 R
b0 >
b0 P
0J
b11100 &
b11100 G
b1010 C
1"
#340000
0"
#345000
b101 A
b101 n
b101 9
b1010 $
b1010 m
b1010 :
10
b0 8
b0 _
06
b101 /
b101 q
b101 3
b110011 ^
b0 ]
b0 5
b0 g
b11000 ,
b100110000001100010011 -
b100110000001100010011 i
b1010 )
b1010 Y
b1010 t
1J
b0 &
b0 G
b0 C
b10 K
b10 l
1M
b10000 Q
b110 V
b110 c
b111 U
b111 b
b10000 N
b101 S
b1010 R
b11100 >
b1100 P
b11000101000001010110011 W
b11000101000001010110011 f
b10000 X
b11000 +
b10100 \
b10100 h
1"
#350000
0"
#355000
b101 2
b101 v
b0 1
b0 u
17
10
b11100 ,
b11111111010111111111000001101111 -
b11111111010111111111000001101111 i
b110 /
b110 q
b1 .
b1 r
b110 3
b10011 ^
b1 5
b1 g
0=
b1111 @
b1111 o
b11100 +
b11000 \
b11000 h
b100110000001100010011 W
b100110000001100010011 f
b10100 X
b0 K
b0 l
0M
1T
b101 Q
b101 U
b101 b
b0 N
b10000 >
b10000 P
b10000 H
b10000 `
b11100 &
b11100 G
1D
b0 )
b0 Y
b0 t
1"
#360000
0"
#365000
b0 2
b0 v
b110 @
b110 o
b0 9
b101 $
b101 m
b101 :
14
07
00
b1 A
b1 n
b11111 /
b11111 q
b10101 .
b10101 r
b0 3
b1101111 ^
b111 ]
b11111111111111111111111111110100 5
b11111111111111111111111111110100 g
b100000 ,
b101000010100010011 -
b101000010100010011 i
b10000 '
b10000 s
b10000 Z
b10000 a
0J
b101 H
b101 `
b10000 &
b10000 G
b1111 C
0D
1I
1L
b110 Q
b1 V
b1 c
b110 U
b110 b
b1 N
b0 S
b101 R
b10101 >
b10100 P
b11111111010111111111000001101111 W
b11111111010111111111000001101111 f
b11000 X
b100000 +
b11100 \
b11100 h
1"
#370000
0"
#375000
b1111 2
b1111 v
17
10
04
1=
b0 @
b0 o
b0 $
b0 m
b0 :
b100100 ,
b101000000000100010010011 -
b101000000000100010010011 i
b101 /
b101 q
b0 .
b0 r
b1010 3
b10011 ^
b0 ]
b0 5
b0 g
b0 A
b0 n
b100100 +
b100000 \
b100000 h
b101000010100010011 W
b101000010100010011 f
b11100 X
1O
0L
0T
b0 Q
b10101 V
b10101 c
b11111 U
b11111 b
b11111111111111111111111111110100 N
b0 R
b1100 >
b11000 P
b110 H
b110 `
b10101 &
b10101 G
b110 C
1(
1[
b101 '
b101 s
b101 Z
b101 a
b1111 )
b1111 Y
b1111 t
1"
#380000
0"
#385000
0=
b1111 @
b1111 o
b1111 $
b1111 m
b1111 :
b0 2
b0 v
1%
b0 /
b0 q
b1010 .
b1010 r
b10001 3
b1010 5
b1010 g
b1100 ,
b1110011 -
b1110011 i
b110 '
b110 s
b110 Z
b110 a
b110 )
b110 Y
b110 t
1J
b0 H
b0 `
b1100 &
b1100 G
b0 C
1E
0I
0O
1L
1T
b1010 Q
b0 V
b0 c
b101 U
b101 b
b0 N
b1111 R
b11100 >
b11100 P
b101000000000100010010011 W
b101000000000100010010011 f
b100000 X
b101000 +
b100100 \
b100100 h
1"
#390000
0"
#395000
07
00
b11000111100100001100011 -
b11000111100100001100011 i
b0 .
b0 r
b0 3
b0 ^
b0 5
b0 g
b10000 ,
0%
b10000 +
b1100 \
b1100 h
b0 W
b0 f
b0 X
b0 Q
0T
b0 &
b0 G
0E
0(
0[
b0 '
b0 s
b0 Z
b0 a
b0 )
b0 Y
b0 t
1"
#400000
0"
#405000
1=
b0 @
b0 o
b0 $
b0 m
b0 :
b1010 2
b1010 v
b110 1
b110 u
b10 8
b10 _
16
b111 /
b111 q
b110 .
b110 r
b10000 3
b1100011 ^
b100 ]
b10000 5
b10000 g
b10100 ,
b11000101000001010110011 -
b11000101000001010110011 i
0J
b11100 &
b11100 G
b1111 C
0L
b0 U
b0 b
b0 R
b0 >
b0 P
b11000111100100001100011 W
b11000111100100001100011 f
b1100 X
b10100 +
b10000 \
b10000 h
1"
#410000
0"
#415000
b1111 2
b1111 v
b110 A
b110 n
10
b0 8
b0 _
06
b110 9
b1010 $
b1010 m
b1010 :
b11000 ,
b100110000001100010011 -
b100110000001100010011 i
b101 /
b101 q
b101 3
b110011 ^
b0 ]
b0 5
b0 g
b11000 +
b10100 \
b10100 h
b11000101000001010110011 W
b11000101000001010110011 f
b10000 X
b10 K
b10 l
1M
b10000 Q
b110 V
b110 c
b111 U
b111 b
b10000 N
b110 S
b1010 R
b11100 >
b1100 P
1J
b0 &
b0 G
b0 C
b1111 )
b1111 Y
b1111 t
1"
#420000
0"
#425000
b110 2
b110 v
b0 1
b0 u
b1111 $
b1111 m
b1111 :
17
10
0=
b10101 @
b10101 o
b110 /
b110 q
b1 .
b1 r
b110 3
b10011 ^
b1 5
b1 g
b11100 ,
b11111111010111111111000001101111 -
b11111111010111111111000001101111 i
b0 )
b0 Y
b0 t
b10000 H
b10000 `
b11100 &
b11100 G
1D
b0 K
b0 l
0M
1T
b101 Q
b101 U
b101 b
b0 N
b1111 R
b10000 >
b10000 P
b100110000001100010011 W
b100110000001100010011 f
b10100 X
b11100 +
b11000 \
b11000 h
1"
#430000
0"
#435000
b0 2
b0 v
14
07
00
b111 @
b111 o
b0 9
b110 $
b110 m
b110 :
b100000 ,
b101000010100010011 -
b101000010100010011 i
b11111 /
b11111 q
b10101 .
b10101 r
b0 3
b1101111 ^
b111 ]
b11111111111111111111111111110100 5
b11111111111111111111111111110100 g
b1 A
b1 n
b100000 +
b11100 \
b11100 h
b11111111010111111111000001101111 W
b11111111010111111111000001101111 f
b11000 X
1L
b110 Q
b1 V
b1 c
b110 U
b110 b
b1 N
b0 S
b110 R
b10101 >
b10100 P
0J
b101 H
b101 `
b10000 &
b10000 G
b10101 C
0D
1I
b10000 '
b10000 s
b10000 Z
b10000 a
1"
#440000
0"
#445000
b10101 2
b10101 v
1=
b0 @
b0 o
b0 $
b0 m
b0 :
17
10
04
b0 A
b0 n
b101 /
b101 q
b0 .
b0 r
b1010 3
b10011 ^
b0 ]
b0 5
b0 g
b100100 ,
b101000000000100010010011 -
b101000000000100010010011 i
1(
1[
b101 '
b101 s
b101 Z
b101 a
b10101 )
b10101 Y
b10101 t
b110 H
b110 `
b10101 &
b10101 G
b111 C
1O
0L
0T
b0 Q
b10101 V
b10101 c
b11111 U
b11111 b
b11111111111111111111111111110100 N
b0 R
b1100 >
b11000 P
b101000010100010011 W
b101000010100010011 f
b11100 X
b100100 +
b100000 \
b100000 h
1"
#450000
0"
